<svg width="68" height="98" viewBox="0 0 68 98" fill="none" xmlns="http://www.w3.org/2000/svg">
<path d="M64.6498 64.329C60.4798 60.229 54.6398 60.299 50.2498 64.619C48.4498 66.379 46.8498 68.339 44.9398 70.439C43.1998 67.059 41.1598 64.899 38.0798 64.069C36.6898 63.699 36.0998 62.859 36.5598 61.709C36.8498 60.999 37.8398 60.229 38.6198 60.099C52.0198 57.789 62.1898 45.959 62.1998 32.539C62.1998 29.529 61.3798 28.689 58.3798 28.819C51.5898 29.139 45.4798 31.369 40.5098 36.019C37.8898 38.469 35.7598 41.439 33.3198 44.289C33.3098 44.279 33.2298 44.249 33.1798 44.189C32.9198 43.799 32.6498 43.409 32.3998 43.009C27.6898 35.369 20.9098 30.719 12.0898 29.189C6.85983 28.289 3.75983 27.959 4.80983 35.619C6.43983 47.529 16.4098 58.229 28.1598 59.989C30.2998 60.309 31.1498 61.129 30.2298 63.589C28.0698 63.589 25.7998 63.559 23.5298 63.589C18.2798 63.679 13.5598 65.289 9.67983 68.869C6.82983 71.499 4.17983 74.329 1.40983 77.039C-0.0201666 78.439 -0.620167 79.919 0.849833 81.589C1.99983 82.889 3.84983 82.719 5.43983 81.159C7.93983 78.729 10.1898 76.009 12.8998 73.859C15.0598 72.159 17.6598 70.379 20.2598 69.989C24.9898 69.279 29.8698 69.519 34.6798 69.469C37.5098 69.439 39.5098 71.259 39.4998 73.619C39.4898 76.009 37.4998 77.769 34.6998 77.799C31.2998 77.839 27.8898 77.799 24.4898 77.819C22.0498 77.839 20.6598 78.909 20.6098 80.729C20.5598 82.499 22.0198 83.679 24.4098 83.699C28.4498 83.729 32.4898 83.619 36.5198 83.739C38.5198 83.799 39.9998 83.109 41.3498 81.729C45.5598 77.439 49.8198 73.199 54.0598 68.939C56.2398 66.759 58.6598 66.579 60.5498 68.429C62.3898 70.239 62.1898 72.799 60.0598 74.919C55.6798 79.269 51.2498 83.559 46.9698 87.999C44.2098 90.869 40.9798 92.139 37.0198 92.099C26.4098 92.009 15.8098 92.069 5.19983 92.069C4.40983 92.069 3.40983 91.849 2.87983 92.229C1.94983 92.899 0.669833 93.989 0.709833 94.849C0.749833 95.869 1.92983 96.969 2.82983 97.779C3.23983 98.149 4.19983 97.939 4.90983 97.939C15.8298 97.949 26.7498 97.959 37.6798 97.939C42.4698 97.929 46.6898 96.309 50.1298 92.969C54.9498 88.279 59.7098 83.529 64.4198 78.729C68.6898 74.399 68.7398 68.349 64.6498 64.329ZM56.1098 35.069C55.6798 44.319 46.5298 53.519 36.9498 54.369C37.2998 45.059 46.6598 35.709 56.1098 35.069ZM11.0098 35.229C19.6698 35.019 30.2698 45.599 30.0598 54.399C21.0598 53.989 10.7798 43.549 11.0098 35.229Z" fill="url(#paint0_linear_11_56)"/>
<path d="M58.8398 0.0990524C52.0498 0.419052 45.9398 2.64905 40.9698 7.29905C38.3498 9.74905 36.2198 12.7191 33.7798 15.5691C33.7698 15.5591 33.6798 15.5291 33.6398 15.4691C33.3798 15.0791 33.1098 14.6891 32.8598 14.2891C28.1598 6.62905 21.3798 1.97905 12.5498 0.459052C7.31982 -0.440948 4.21982 -0.770947 5.26982 6.88905C6.83982 18.3191 16.0898 28.6491 27.2398 30.9991H27.2498C27.6298 31.0691 35.0998 32.3591 40.8698 30.9991C40.8698 30.9991 40.8698 30.9991 40.8798 30.9991C53.3798 27.9891 62.6498 16.6191 62.6598 3.80905C62.6598 0.799052 61.8398 -0.0409476 58.8398 0.0990524ZM11.4598 6.49905C20.1198 6.28905 30.7198 16.8691 30.5098 25.6691C21.4998 25.2591 11.2198 14.8191 11.4598 6.49905ZM37.3898 25.6391C37.7398 16.3291 47.1098 6.97905 56.5498 6.33905C56.1298 15.5891 46.9798 24.7891 37.3898 25.6391Z" fill="url(#paint1_linear_11_56)"/>
<path d="M27.2398 30.9991H27.2498C27.2498 31.0091 27.2398 31.0091 27.2398 30.9991Z" fill="url(#paint2_linear_11_56)"/>
<defs>
<linearGradient id="paint0_linear_11_56" x1="33.8354" y1="28.73" x2="33.8354" y2="97.9984" gradientUnits="userSpaceOnUse">
<stop stop-color="#E191EE"/>
<stop offset="1" stop-color="#94529F"/>
</linearGradient>
<linearGradient id="paint1_linear_11_56" x1="33.8631" y1="0" x2="33.8631" y2="31.6194" gradientUnits="userSpaceOnUse">
<stop stop-color="#E191EE"/>
<stop offset="1" stop-color="#94529F"/>
</linearGradient>
<linearGradient id="paint2_linear_11_56" x1="27.2448" y1="30.9991" x2="27.2448" y2="31.0066" gradientUnits="userSpaceOnUse">
<stop stop-color="#E191EE"/>
<stop offset="1" stop-color="#94529F"/>
</linearGradient>
</defs>
</svg>
