<svg width="788" height="577" viewBox="0 0 788 577" fill="none" xmlns="http://www.w3.org/2000/svg">
<path d="M780.459 55.11C776.528 55.11 773.363 51.9206 773.363 48.0142V18.1969C773.363 15.9965 771.583 14.1916 769.358 14.1916H739.096C735.189 14.1916 732 11.027 732 7.09582C732 3.18941 735.189 0 739.096 0H769.383C779.421 0 787.58 8.15896 787.58 18.1969V48.0142C787.58 51.9206 784.39 55.11 780.459 55.11Z" fill="url(#paint0_linear_124_65)"/>
<path d="M49.646 576.318H18.1969C8.15896 576.318 0 568.159 0 558.121V520.096C0 516.165 3.18941 513 7.09582 513C11.0022 513 14.1916 516.189 14.1916 520.096V558.121C14.1916 560.322 15.9965 562.127 18.1969 562.127H49.6213C53.5524 562.127 56.7171 565.316 56.7171 569.223C56.7418 573.154 53.5524 576.318 49.646 576.318Z" fill="url(#paint1_linear_124_65)"/>
<path d="M7.1206 55.11C3.18947 55.11 0.0247803 51.9206 0.0247803 48.0142V18.1969C0.0247803 8.15896 8.18374 0 18.197 0H49.6213C53.5525 0 56.7172 3.18941 56.7172 7.09582C56.7172 11.027 53.5277 14.1916 49.6213 14.1916H18.197C15.9966 14.1916 14.1917 15.9718 14.1917 18.1969V48.0142C14.2164 51.9206 11.027 55.11 7.1206 55.11Z" fill="url(#paint2_linear_124_65)"/>
<path d="M769.383 576.318H739.096C735.165 576.318 732 573.129 732 569.223C732 565.292 735.189 562.127 739.096 562.127H769.383C771.583 562.127 773.388 560.347 773.388 558.121V520.096C773.388 516.165 776.578 513 780.484 513C784.415 513 787.58 516.189 787.58 520.096V558.121C787.58 568.159 779.421 576.318 769.383 576.318Z" fill="url(#paint3_linear_124_65)"/>
<defs>
<linearGradient id="paint0_linear_124_65" x1="759.79" y1="0" x2="759.79" y2="55.11" gradientUnits="userSpaceOnUse">
<stop stop-color="#E191EE"/>
<stop offset="1" stop-color="#94529F"/>
</linearGradient>
<linearGradient id="paint1_linear_124_65" x1="28.3586" y1="513" x2="28.3586" y2="576.318" gradientUnits="userSpaceOnUse">
<stop stop-color="#E191EE"/>
<stop offset="1" stop-color="#94529F"/>
</linearGradient>
<linearGradient id="paint2_linear_124_65" x1="28.371" y1="0" x2="28.371" y2="55.11" gradientUnits="userSpaceOnUse">
<stop stop-color="#E191EE"/>
<stop offset="1" stop-color="#94529F"/>
</linearGradient>
<linearGradient id="paint3_linear_124_65" x1="759.79" y1="513" x2="759.79" y2="576.318" gradientUnits="userSpaceOnUse">
<stop stop-color="#E191EE"/>
<stop offset="1" stop-color="#94529F"/>
</linearGradient>
</defs>
</svg>
