<svg width="674" height="877" viewBox="0 0 674 877" fill="none" xmlns="http://www.w3.org/2000/svg">
<mask id="mask0_44_770" style="mask-type:alpha" maskUnits="userSpaceOnUse" x="80" y="0" width="797" height="797">
<circle cx="478.5" cy="398.5" r="398.5" fill="#7C287D" fill-opacity="0.1"/>
</mask>
<g mask="url(#mask0_44_770)">
<rect x="-982" y="385" width="1388" height="744" rx="35" fill="#94529F"/>
</g>
</svg>
