<svg width="34" height="25" viewBox="0 0 34 25" fill="none" xmlns="http://www.w3.org/2000/svg">
<path d="M28.9003 2.14098C28.9003 2.14098 26.1162 0.274411 21.7084 0L21.0967 1.74365C21.1024 1.73222 19.1387 1.4378 19.0129 1.42637C17.9038 1.31775 16.7176 1.32918 15.6056 1.41493C15.4742 1.42637 13.5104 1.7408 13.5104 1.74365L12.8987 0C8.49096 0.274411 5.70683 2.14098 5.70683 2.14098C-0.873326 12.3028 0.901773 20.6552 0.901773 20.6552C3.10564 22.9819 9.43997 25 9.43997 25L11.1236 22.0615L8.43093 20.8381L8.82826 20.0434C11.1436 21.2011 13.7934 21.8357 16.3774 21.9729C18.687 22.0958 21.0481 21.7414 23.2491 21.0525C23.6808 20.9181 24.1095 20.7666 24.5326 20.598C24.6526 20.5494 25.7474 20.0091 25.7789 20.0406L26.1762 20.8352L23.4835 22.0587L25.1672 24.9971C25.1672 24.9971 31.5015 22.9762 33.7053 20.6523C33.7053 20.658 35.4804 12.3028 28.9003 2.14098ZM11.8268 16.8934C10.1746 16.8934 8.83397 15.4356 8.83397 13.6348C8.83397 11.834 10.1746 10.3762 11.8268 10.3762C13.479 10.3762 14.8196 11.8368 14.8196 13.6348C14.8196 15.4328 13.479 16.8934 11.8268 16.8934ZM22.7803 16.8934C21.1282 16.8934 19.7876 15.4356 19.7876 13.6348C19.7876 11.834 21.1282 10.3762 22.7803 10.3762C24.4325 10.3762 25.7731 11.8368 25.7731 13.6348C25.7703 15.4328 24.4325 16.8934 22.7803 16.8934Z" fill="#94529F"/>
</svg>
