<svg width="58" height="58" viewBox="0 0 58 58" fill="none" xmlns="http://www.w3.org/2000/svg">
<circle cx="29" cy="29" r="29" fill="#531C56"/>
<path d="M29.9421 16.6171C28.5291 18.1744 28.526 20.7024 29.936 22.2563L38.8206 32.0448C40.2335 33.602 42.5273 33.5953 43.9372 32.038C45.3502 30.4808 45.3533 27.9527 43.9434 26.3989L35.0588 16.6104C33.6488 15.0565 31.3551 15.0598 29.9421 16.6171Z" fill="#7C287D"/>
<path opacity="0.7" d="M29.942 41.8299C31.355 43.3872 33.6488 43.3906 35.0587 41.8367L43.9433 32.0448C45.3563 30.4876 45.3502 27.9595 43.9372 26.4056C42.5242 24.8484 40.2304 24.845 38.8205 26.3989L29.939 36.1908C28.526 37.7447 28.5291 40.2727 29.942 41.8299Z" fill="#94529F"/>
<path opacity="0.5" d="M41.3835 25.1214L16.4362 25.1214C14.4391 25.1214 12.8212 26.9652 12.8212 29.1662C12.8212 31.3673 14.4391 33.2111 16.4362 33.2111L41.3835 33.2111C43.3806 33.2111 44.9985 31.3673 44.9985 29.1662C44.9985 26.9652 43.3806 25.1214 41.3835 25.1214Z" fill="#94529F"/>
</svg>
