<svg width="596" height="554" viewBox="0 0 596 554" fill="none" xmlns="http://www.w3.org/2000/svg">
<path d="M11.16 8.06V9.72C10.5733 9.41333 10.0467 9.19333 9.58 9.06C9.11333 8.92667 8.5 8.86 7.74 8.86C6.28667 8.86 5.07333 9.35333 4.1 10.34C3.14 11.3267 2.66 12.6133 2.66 14.2C2.66 15.8533 3.14 17.1733 4.1 18.16C5.06 19.1467 6.33333 19.64 7.92 19.64C9.2 19.64 10.2933 19.3 11.2 18.62V20.32C10.3733 20.88 9.24 21.16 7.8 21.16C5.77333 21.16 4.12667 20.54 2.86 19.3C1.59333 18.0467 0.96 16.3467 0.96 14.2C0.96 12.1733 1.6 10.5267 2.88 9.26C4.17333 7.98 5.79333 7.34 7.74 7.34C9.14 7.34 10.28 7.58 11.16 8.06ZM15.1913 19.58H21.0913V21H13.5713V7.52H20.9913V8.94H15.1913V13.56H20.3113V14.98H15.1913V19.58ZM27.1708 14.2L23.0708 7.52H24.9708L28.0708 12.74C28.1241 12.6333 28.6508 11.7467 29.6508 10.08C30.6508 8.4 31.1574 7.54667 31.1708 7.52H33.0908L29.0108 14.2L33.5308 21H31.6308L28.1108 15.58C28.0974 15.6067 27.5508 16.4867 26.4708 18.22C25.3908 19.9533 24.8174 20.88 24.7508 21H22.8308L27.1708 14.2ZM42.3592 19.54H48.0992V21H40.7392V7.52H42.3592V19.54ZM50.2705 21V10.86H51.8505V21H50.2705ZM50.3105 8.42C50.1238 8.22 50.0305 7.97333 50.0305 7.68C50.0305 7.38667 50.1238 7.14 50.3105 6.94C50.5105 6.74 50.7571 6.64 51.0505 6.64C51.3438 6.64 51.5905 6.74 51.7905 6.94C51.9905 7.14 52.0905 7.38667 52.0905 7.68C52.0905 7.97333 51.9905 8.22 51.7905 8.42C51.5905 8.60667 51.3438 8.7 51.0505 8.7C50.7571 8.7 50.5105 8.60667 50.3105 8.42ZM60.3784 11.2V12.7C59.7651 12.3267 58.9251 12.14 57.8584 12.14C57.3251 12.14 56.8984 12.2667 56.5784 12.52C56.2718 12.76 56.1184 13.0733 56.1184 13.46C56.1184 13.7 56.1651 13.9133 56.2584 14.1C56.3518 14.2733 56.5318 14.4467 56.7984 14.62C57.0784 14.7933 57.2784 14.9133 57.3984 14.98C57.5318 15.0333 57.8118 15.1533 58.2384 15.34C59.0918 15.6867 59.7584 16.08 60.2384 16.52C60.7184 16.96 60.9584 17.5533 60.9584 18.3C60.9584 19.1667 60.6518 19.8533 60.0384 20.36C59.4384 20.8667 58.6118 21.12 57.5584 21.12C56.3318 21.12 55.3384 20.9133 54.5784 20.5V18.96C55.4718 19.4933 56.4318 19.76 57.4584 19.76C58.0718 19.76 58.5384 19.64 58.8584 19.4C59.1784 19.16 59.3384 18.8333 59.3384 18.42C59.3384 17.94 59.1584 17.5667 58.7984 17.3C58.4518 17.0333 57.8651 16.7333 57.0384 16.4C56.2784 16.1067 55.6651 15.74 55.1984 15.3C54.7451 14.86 54.5184 14.2667 54.5184 13.52C54.5184 12.68 54.8318 12.0133 55.4584 11.52C56.0984 11.0133 56.8918 10.76 57.8384 10.76C58.8918 10.76 59.7384 10.9067 60.3784 11.2ZM65.2806 12.14V18.08C65.2806 19.16 65.7873 19.7 66.8006 19.7C67.3206 19.7 67.7806 19.5467 68.1806 19.24V20.74C67.7406 20.98 67.2473 21.1 66.7006 21.1C64.7006 21.1 63.7006 20.08 63.7006 18.04V12.14H62.0806V10.86H63.7006V8.34H65.2806V10.86H68.0806V12.14H65.2806ZM70.5634 21V10.86H72.1434V21H70.5634ZM70.6034 8.42C70.4168 8.22 70.3234 7.97333 70.3234 7.68C70.3234 7.38667 70.4168 7.14 70.6034 6.94C70.8034 6.74 71.0501 6.64 71.3434 6.64C71.6368 6.64 71.8834 6.74 72.0834 6.94C72.2834 7.14 72.3834 7.38667 72.3834 7.68C72.3834 7.97333 72.2834 8.22 72.0834 8.42C71.8834 8.60667 71.6368 8.7 71.3434 8.7C71.0501 8.7 70.8034 8.60667 70.6034 8.42ZM76.7114 10.86V12.62C77.3114 11.3533 78.3781 10.72 79.9114 10.72C80.8981 10.72 81.6847 11.02 82.2714 11.62C82.8581 12.22 83.1514 13.02 83.1514 14.02V21H81.5714V14.44C81.5714 13.6933 81.3781 13.1267 80.9914 12.74C80.6181 12.34 80.1247 12.14 79.5114 12.14C78.7514 12.14 78.0914 12.4333 77.5314 13.02C76.9847 13.6067 76.7114 14.42 76.7114 15.46V21H75.1514V10.86H76.7114ZM89.7522 19.34C90.4855 19.34 91.1322 19.06 91.6922 18.5C92.2655 17.9267 92.5522 17.08 92.5522 15.96C92.5522 14.6667 92.2789 13.7067 91.7322 13.08C91.1855 12.4533 90.5522 12.14 89.8322 12.14C88.9655 12.14 88.2789 12.4867 87.7722 13.18C87.2655 13.86 87.0122 14.7533 87.0122 15.86C87.0122 16.9933 87.2922 17.86 87.8522 18.46C88.4122 19.0467 89.0455 19.34 89.7522 19.34ZM92.5522 10.86H94.1322V20.18C94.1322 21.7267 93.7055 22.8867 92.8522 23.66C91.9989 24.4467 90.8989 24.84 89.5522 24.84C88.3255 24.84 87.2789 24.6333 86.4122 24.22V22.64C87.2655 23.1333 88.2655 23.38 89.4122 23.38C90.3855 23.38 91.1522 23.12 91.7122 22.6C92.2722 22.08 92.5522 21.2667 92.5522 20.16V19.02C91.8855 20.1667 90.8922 20.74 89.5722 20.74C88.4122 20.74 87.4189 20.3133 86.5922 19.46C85.7789 18.6067 85.3722 17.42 85.3722 15.9C85.3722 14.3933 85.7522 13.1533 86.5122 12.18C87.2722 11.2067 88.2655 10.72 89.4922 10.72C90.8789 10.72 91.8989 11.3267 92.5522 12.54V10.86ZM96.6488 13.4C96.6488 13.08 96.7554 12.8067 96.9688 12.58C97.1954 12.3533 97.4754 12.24 97.8088 12.24C98.1421 12.24 98.4221 12.3533 98.6488 12.58C98.8754 12.8067 98.9888 13.08 98.9888 13.4C98.9888 13.7333 98.8754 14.0133 98.6488 14.24C98.4221 14.4533 98.1421 14.56 97.8088 14.56C97.4754 14.56 97.1954 14.4533 96.9688 14.24C96.7554 14.0133 96.6488 13.7333 96.6488 13.4ZM96.9688 20.7C96.7554 20.4733 96.6488 20.1933 96.6488 19.86C96.6488 19.5267 96.7554 19.2467 96.9688 19.02C97.1954 18.7933 97.4754 18.68 97.8088 18.68C98.1421 18.68 98.4221 18.7933 98.6488 19.02C98.8754 19.2467 98.9888 19.5267 98.9888 19.86C98.9888 20.1933 98.8754 20.4733 98.6488 20.7C98.4221 20.9133 98.1421 21.02 97.8088 21.02C97.4754 21.02 97.1954 20.9133 96.9688 20.7Z" fill="#F5F5F5"/>
<path d="M0.36 43.5V41.8L3.46 39.92H4.94V53H3.38V41.64L0.36 43.5ZM7.32484 46.42C7.32484 44.3667 7.73818 42.7467 8.56484 41.56C9.40484 40.36 10.5048 39.76 11.8648 39.76C13.2782 39.76 14.3982 40.36 15.2248 41.56C16.0648 42.7467 16.4848 44.3667 16.4848 46.42C16.4848 48.46 16.0848 50.0933 15.2848 51.32C14.4848 52.5467 13.3448 53.16 11.8648 53.16C10.4915 53.16 9.39151 52.5467 8.56484 51.32C7.73818 50.0933 7.32484 48.46 7.32484 46.42ZM9.80484 42.62C9.23151 43.5133 8.94484 44.78 8.94484 46.42C8.94484 48.06 9.22484 49.3467 9.78484 50.28C10.3448 51.2 11.0382 51.66 11.8648 51.66C12.7848 51.66 13.5115 51.2067 14.0448 50.3C14.5915 49.3933 14.8648 48.1 14.8648 46.42C14.8648 44.7533 14.5782 43.48 14.0048 42.6C13.4448 41.7067 12.7315 41.26 11.8648 41.26C11.0648 41.26 10.3782 41.7133 9.80484 42.62ZM21.4638 53.02L28.6038 39.7H30.1438L22.9638 53.02H21.4638ZM26.9838 49.98C26.9838 49.1 27.2904 48.3533 27.9037 47.74C28.5171 47.1133 29.2638 46.8 30.1438 46.8C31.0104 46.8 31.7504 47.1133 32.3638 47.74C32.9904 48.3667 33.3038 49.1133 33.3038 49.98C33.3038 50.8467 32.9904 51.5933 32.3638 52.22C31.7504 52.8333 31.0104 53.14 30.1438 53.14C29.2638 53.14 28.5171 52.8333 27.9037 52.22C27.2904 51.5933 26.9838 50.8467 26.9838 49.98ZM18.3238 42.7C18.3238 41.8333 18.6304 41.0933 19.2438 40.48C19.8704 39.8533 20.6171 39.54 21.4838 39.54C22.3504 39.54 23.0971 39.8533 23.7238 40.48C24.3504 41.0933 24.6638 41.8333 24.6638 42.7C24.6638 43.58 24.3504 44.3333 23.7238 44.96C23.0971 45.5733 22.3504 45.88 21.4838 45.88C20.6171 45.88 19.8704 45.5733 19.2438 44.96C18.6304 44.3333 18.3238 43.58 18.3238 42.7ZM20.2238 41.44C19.8771 41.7867 19.7038 42.2067 19.7038 42.7C19.7038 43.1933 19.8771 43.62 20.2238 43.98C20.5704 44.3267 20.9904 44.5 21.4838 44.5C21.9771 44.5 22.3971 44.3267 22.7438 43.98C23.1038 43.62 23.2838 43.1933 23.2838 42.7C23.2838 42.2067 23.1038 41.7867 22.7438 41.44C22.3971 41.0933 21.9771 40.92 21.4838 40.92C20.9904 40.92 20.5704 41.0933 20.2238 41.44ZM28.8638 48.72C28.5171 49.0667 28.3438 49.4867 28.3438 49.98C28.3438 50.4733 28.5171 50.8933 28.8638 51.24C29.2238 51.5867 29.6504 51.76 30.1438 51.76C30.6371 51.76 31.0571 51.5867 31.4038 51.24C31.7638 50.8933 31.9438 50.4733 31.9438 49.98C31.9438 49.4867 31.7704 49.0667 31.4238 48.72C31.0771 48.36 30.6504 48.18 30.1438 48.18C29.6504 48.18 29.2238 48.36 28.8638 48.72Z" fill="#E191EE"/>
<path d="M11.16 108.06V109.72C10.5733 109.413 10.0467 109.193 9.58 109.06C9.11333 108.927 8.5 108.86 7.74 108.86C6.28667 108.86 5.07333 109.353 4.1 110.34C3.14 111.327 2.66 112.613 2.66 114.2C2.66 115.853 3.14 117.173 4.1 118.16C5.06 119.147 6.33333 119.64 7.92 119.64C9.2 119.64 10.2933 119.3 11.2 118.62V120.32C10.3733 120.88 9.24 121.16 7.8 121.16C5.77333 121.16 4.12667 120.54 2.86 119.3C1.59333 118.047 0.96 116.347 0.96 114.2C0.96 112.173 1.6 110.527 2.88 109.26C4.17333 107.98 5.79333 107.34 7.74 107.34C9.14 107.34 10.28 107.58 11.16 108.06ZM17.6113 121.18C16.1579 121.18 15.0046 120.693 14.1513 119.72C13.3113 118.733 12.8913 117.493 12.8913 116C12.8913 114.493 13.3246 113.24 14.1913 112.24C15.0713 111.227 16.2113 110.72 17.6113 110.72C19.1446 110.72 20.3246 111.213 21.1513 112.2C21.9913 113.187 22.4113 114.44 22.4113 115.96C22.4113 117.467 21.9846 118.713 21.1313 119.7C20.2779 120.687 19.1046 121.18 17.6113 121.18ZM17.6113 112.12C16.6513 112.12 15.8979 112.493 15.3513 113.24C14.8046 113.987 14.5312 114.9 14.5312 115.98C14.5312 117.033 14.8113 117.933 15.3713 118.68C15.9313 119.413 16.6779 119.78 17.6113 119.78C18.6246 119.78 19.4046 119.42 19.9513 118.7C20.4979 117.967 20.7713 117.06 20.7713 115.98C20.7713 114.86 20.5113 113.94 19.9913 113.22C19.4713 112.487 18.6779 112.12 17.6113 112.12ZM26.2817 110.86V112.5C26.8417 111.313 27.7951 110.72 29.1417 110.72C30.7017 110.72 31.6884 111.38 32.1017 112.7C32.3951 112.06 32.8017 111.573 33.3217 111.24C33.8551 110.893 34.4484 110.72 35.1017 110.72C36.1551 110.72 36.9484 111.02 37.4817 111.62C38.0151 112.22 38.2817 113.027 38.2817 114.04V121H36.7017V114.44C36.7017 112.907 36.0551 112.14 34.7617 112.14C34.1217 112.14 33.5484 112.433 33.0417 113.02C32.5351 113.593 32.2817 114.407 32.2817 115.46V121H30.7017V114.44C30.7017 112.907 30.0551 112.14 28.7617 112.14C28.1217 112.14 27.5484 112.433 27.0417 113.02C26.5351 113.593 26.2817 114.407 26.2817 115.46V121H24.7217V110.86H26.2817ZM42.6489 110.86V112.5C43.2089 111.313 44.1622 110.72 45.5089 110.72C47.0689 110.72 48.0556 111.38 48.4689 112.7C48.7622 112.06 49.1689 111.573 49.6889 111.24C50.2222 110.893 50.8156 110.72 51.4689 110.72C52.5222 110.72 53.3156 111.02 53.8489 111.62C54.3822 112.22 54.6489 113.027 54.6489 114.04V121H53.0689V114.44C53.0689 112.907 52.4222 112.14 51.1289 112.14C50.4889 112.14 49.9156 112.433 49.4089 113.02C48.9022 113.593 48.6489 114.407 48.6489 115.46V121H47.0689V114.44C47.0689 112.907 46.4222 112.14 45.1289 112.14C44.4889 112.14 43.9156 112.433 43.4089 113.02C42.9022 113.593 42.6489 114.407 42.6489 115.46V121H41.0889V110.86H42.6489ZM63.7561 110.86H65.3361V121H63.7561V119.24C63.2228 120.493 62.1628 121.12 60.5761 121.12C59.5761 121.12 58.7828 120.827 58.1961 120.24C57.6228 119.64 57.3361 118.84 57.3361 117.84V110.86H58.9161V117.44C58.9161 118.173 59.1028 118.733 59.4761 119.12C59.8494 119.507 60.3561 119.7 60.9961 119.7C61.8361 119.7 62.5028 119.407 62.9961 118.82C63.5028 118.233 63.7561 117.44 63.7561 116.44V110.86ZM69.8169 110.86V112.62C70.4169 111.353 71.4835 110.72 73.0169 110.72C74.0035 110.72 74.7902 111.02 75.3769 111.62C75.9635 112.22 76.2569 113.02 76.2569 114.02V121H74.6769V114.44C74.6769 113.693 74.4835 113.127 74.0969 112.74C73.7235 112.34 73.2302 112.14 72.6169 112.14C71.8569 112.14 71.1969 112.433 70.6369 113.02C70.0902 113.607 69.8169 114.42 69.8169 115.46V121H68.2569V110.86H69.8169ZM79.1377 121V110.86H80.7177V121H79.1377ZM79.1777 108.42C78.991 108.22 78.8977 107.973 78.8977 107.68C78.8977 107.387 78.991 107.14 79.1777 106.94C79.3777 106.74 79.6243 106.64 79.9177 106.64C80.211 106.64 80.4577 106.74 80.6577 106.94C80.8577 107.14 80.9577 107.387 80.9577 107.68C80.9577 107.973 80.8577 108.22 80.6577 108.42C80.4577 108.607 80.211 108.7 79.9177 108.7C79.6243 108.7 79.3777 108.607 79.1777 108.42ZM85.9056 112.14V118.08C85.9056 119.16 86.4123 119.7 87.4256 119.7C87.9456 119.7 88.4056 119.547 88.8056 119.24V120.74C88.3656 120.98 87.8723 121.1 87.3256 121.1C85.3256 121.1 84.3256 120.08 84.3256 118.04V112.14H82.7056V110.86H84.3256V108.34H85.9056V110.86H88.7056V112.14H85.9056ZM93.9084 120.74L89.8084 110.86H91.5884L92.9084 114.2L94.6884 118.8C94.7951 118.453 95.3284 116.92 96.2884 114.2L97.4684 110.86H99.1684L95.5084 120.74C94.9884 122.113 94.3684 123.08 93.6484 123.64C92.9418 124.2 92.1284 124.48 91.2084 124.48C90.8618 124.48 90.5818 124.447 90.3684 124.38V122.96C90.5684 123.013 90.7951 123.04 91.0484 123.04C92.3951 123.04 93.3484 122.273 93.9084 120.74ZM108.495 116.08H113.275L113.015 115.3L110.915 108.82C110.755 109.393 110.035 111.56 108.755 115.32L108.495 116.08ZM114.915 121L113.735 117.46H108.035L106.835 121H105.095L109.795 107.52H112.035L116.655 121H114.915ZM118.903 121V110.86H120.483V121H118.903ZM118.943 108.42C118.757 108.22 118.663 107.973 118.663 107.68C118.663 107.387 118.757 107.14 118.943 106.94C119.143 106.74 119.39 106.64 119.683 106.64C119.977 106.64 120.223 106.74 120.423 106.94C120.623 107.14 120.723 107.387 120.723 107.68C120.723 107.973 120.623 108.22 120.423 108.42C120.223 108.607 119.977 108.7 119.683 108.7C119.39 108.7 119.143 108.607 118.943 108.42ZM125.051 110.86V112.64C125.585 111.387 126.505 110.76 127.811 110.76C128.051 110.76 128.238 110.773 128.371 110.8V112.36C128.091 112.267 127.805 112.22 127.511 112.22C126.805 112.22 126.218 112.547 125.751 113.2C125.285 113.853 125.051 114.607 125.051 115.46V121H123.471L123.491 110.86H125.051ZM133.875 119.72C134.701 119.72 135.401 119.413 135.975 118.8C136.561 118.187 136.855 117.207 136.855 115.86C136.855 114.58 136.555 113.64 135.955 113.04C135.355 112.44 134.695 112.14 133.975 112.14C133.135 112.14 132.435 112.48 131.875 113.16C131.328 113.827 131.055 114.787 131.055 116.04C131.055 117.133 131.321 118.02 131.855 118.7C132.388 119.38 133.061 119.72 133.875 119.72ZM136.855 106.86H138.435V121H136.855V119.5C136.135 120.607 135.095 121.16 133.735 121.16C132.388 121.16 131.328 120.66 130.555 119.66C129.795 118.66 129.415 117.447 129.415 116.02C129.415 114.433 129.821 113.153 130.635 112.18C131.448 111.193 132.495 110.7 133.775 110.7C135.095 110.7 136.121 111.267 136.855 112.4V106.86ZM142.922 110.86V112.64C143.456 111.387 144.376 110.76 145.682 110.76C145.922 110.76 146.109 110.773 146.242 110.8V112.36C145.962 112.267 145.676 112.22 145.382 112.22C144.676 112.22 144.089 112.547 143.622 113.2C143.156 113.853 142.922 114.607 142.922 115.46V121H141.342L141.362 110.86H142.922ZM152.006 121.18C150.552 121.18 149.399 120.693 148.546 119.72C147.706 118.733 147.286 117.493 147.286 116C147.286 114.493 147.719 113.24 148.586 112.24C149.466 111.227 150.606 110.72 152.006 110.72C153.539 110.72 154.719 111.213 155.546 112.2C156.386 113.187 156.806 114.44 156.806 115.96C156.806 117.467 156.379 118.713 155.526 119.7C154.672 120.687 153.499 121.18 152.006 121.18ZM152.006 112.12C151.046 112.12 150.292 112.493 149.746 113.24C149.199 113.987 148.926 114.9 148.926 115.98C148.926 117.033 149.206 117.933 149.766 118.68C150.326 119.413 151.072 119.78 152.006 119.78C153.019 119.78 153.799 119.42 154.346 118.7C154.892 117.967 155.166 117.06 155.166 115.98C155.166 114.86 154.906 113.94 154.386 113.22C153.866 112.487 153.072 112.12 152.006 112.12ZM163.576 119.72C164.43 119.72 165.13 119.387 165.676 118.72C166.223 118.04 166.496 117.08 166.496 115.84C166.496 114.733 166.23 113.84 165.696 113.16C165.163 112.48 164.49 112.14 163.676 112.14C162.863 112.14 162.156 112.44 161.556 113.04C160.97 113.627 160.676 114.593 160.676 115.94C160.676 117.233 160.976 118.187 161.576 118.8C162.176 119.413 162.843 119.72 163.576 119.72ZM160.676 110.86V112.4C161.383 111.267 162.43 110.7 163.816 110.7C165.163 110.7 166.216 111.193 166.976 112.18C167.75 113.153 168.136 114.373 168.136 115.84C168.136 117.4 167.73 118.68 166.916 119.68C166.116 120.667 165.07 121.16 163.776 121.16C162.443 121.16 161.41 120.593 160.676 119.46V124.94H159.116V110.86H160.676ZM170.184 113.4C170.184 113.08 170.291 112.807 170.504 112.58C170.731 112.353 171.011 112.24 171.344 112.24C171.677 112.24 171.957 112.353 172.184 112.58C172.411 112.807 172.524 113.08 172.524 113.4C172.524 113.733 172.411 114.013 172.184 114.24C171.957 114.453 171.677 114.56 171.344 114.56C171.011 114.56 170.731 114.453 170.504 114.24C170.291 114.013 170.184 113.733 170.184 113.4ZM170.504 120.7C170.291 120.473 170.184 120.193 170.184 119.86C170.184 119.527 170.291 119.247 170.504 119.02C170.731 118.793 171.011 118.68 171.344 118.68C171.677 118.68 171.957 118.793 172.184 119.02C172.411 119.247 172.524 119.527 172.524 119.86C172.524 120.193 172.411 120.473 172.184 120.7C171.957 120.913 171.677 121.02 171.344 121.02C171.011 121.02 170.731 120.913 170.504 120.7Z" fill="#F5F5F5"/>
<path d="M2.94 151.62H9.02V153H0.76V151.66C4.89333 148.54 6.96 145.94 6.96 143.86C6.96 143.033 6.72 142.4 6.24 141.96C5.76 141.507 5.11333 141.28 4.3 141.28C3.24667 141.28 2.20667 141.673 1.18 142.46V140.88C2.12667 140.147 3.21333 139.78 4.44 139.78C5.61333 139.78 6.6 140.12 7.4 140.8C8.2 141.48 8.6 142.447 8.6 143.7C8.6 146.06 6.71333 148.7 2.94 151.62ZM10.7028 152.82C10.4761 152.593 10.3628 152.313 10.3628 151.98C10.3628 151.647 10.4761 151.367 10.7028 151.14C10.9295 150.913 11.2095 150.8 11.5428 150.8C11.8761 150.8 12.1561 150.913 12.3828 151.14C12.6095 151.367 12.7228 151.647 12.7228 151.98C12.7228 152.313 12.6095 152.593 12.3828 152.82C12.1561 153.047 11.8761 153.16 11.5428 153.16C11.2095 153.16 10.9295 153.047 10.7028 152.82ZM16.5831 141.3V145.22C17.1831 145.087 17.7031 145.02 18.1431 145.02C19.4765 145.02 20.5298 145.373 21.3031 146.08C22.0898 146.787 22.4831 147.733 22.4831 148.92C22.4831 150.213 22.0565 151.247 21.2031 152.02C20.3631 152.78 19.2098 153.16 17.7431 153.16C16.4231 153.16 15.3031 152.933 14.3831 152.48V150.92C15.2365 151.427 16.2698 151.68 17.4831 151.68C19.7231 151.68 20.8431 150.74 20.8431 148.86C20.8431 148.1 20.5831 147.513 20.0631 147.1C19.5431 146.673 18.8698 146.46 18.0431 146.46C17.0698 146.46 16.0631 146.693 15.0231 147.16V139.92H21.5831V141.3H16.5831ZM27.4989 153.02L34.6389 139.7H36.1789L28.9989 153.02H27.4989ZM33.0189 149.98C33.0189 149.1 33.3256 148.353 33.9389 147.74C34.5522 147.113 35.2989 146.8 36.1789 146.8C37.0456 146.8 37.7856 147.113 38.3989 147.74C39.0256 148.367 39.3389 149.113 39.3389 149.98C39.3389 150.847 39.0256 151.593 38.3989 152.22C37.7856 152.833 37.0456 153.14 36.1789 153.14C35.2989 153.14 34.5522 152.833 33.9389 152.22C33.3256 151.593 33.0189 150.847 33.0189 149.98ZM24.3589 142.7C24.3589 141.833 24.6656 141.093 25.2789 140.48C25.9056 139.853 26.6522 139.54 27.5189 139.54C28.3856 139.54 29.1322 139.853 29.7589 140.48C30.3856 141.093 30.6989 141.833 30.6989 142.7C30.6989 143.58 30.3856 144.333 29.7589 144.96C29.1322 145.573 28.3856 145.88 27.5189 145.88C26.6522 145.88 25.9056 145.573 25.2789 144.96C24.6656 144.333 24.3589 143.58 24.3589 142.7ZM26.2589 141.44C25.9122 141.787 25.7389 142.207 25.7389 142.7C25.7389 143.193 25.9122 143.62 26.2589 143.98C26.6056 144.327 27.0256 144.5 27.5189 144.5C28.0122 144.5 28.4322 144.327 28.7789 143.98C29.1389 143.62 29.3189 143.193 29.3189 142.7C29.3189 142.207 29.1389 141.787 28.7789 141.44C28.4322 141.093 28.0122 140.92 27.5189 140.92C27.0256 140.92 26.6056 141.093 26.2589 141.44ZM34.8989 148.72C34.5522 149.067 34.3789 149.487 34.3789 149.98C34.3789 150.473 34.5522 150.893 34.8989 151.24C35.2589 151.587 35.6856 151.76 36.1789 151.76C36.6722 151.76 37.0922 151.587 37.4389 151.24C37.7989 150.893 37.9789 150.473 37.9789 149.98C37.9789 149.487 37.8056 149.067 37.4589 148.72C37.1122 148.36 36.6856 148.18 36.1789 148.18C35.6856 148.18 35.2589 148.36 34.8989 148.72Z" fill="#E191EE"/>
<path d="M3.16 357.54H8.9V359H1.54V345.52H3.16V357.54ZM11.0713 359V348.86H12.6513V359H11.0713ZM11.1113 346.42C10.9246 346.22 10.8313 345.973 10.8313 345.68C10.8313 345.387 10.9246 345.14 11.1113 344.94C11.3113 344.74 11.5579 344.64 11.8513 344.64C12.1446 344.64 12.3913 344.74 12.5913 344.94C12.7913 345.14 12.8913 345.387 12.8913 345.68C12.8913 345.973 12.7913 346.22 12.5913 346.42C12.3913 346.607 12.1446 346.7 11.8513 346.7C11.5579 346.7 11.3113 346.607 11.1113 346.42ZM19.6192 357.72C20.3526 357.72 21.0126 357.42 21.5992 356.82C22.1992 356.207 22.4992 355.247 22.4992 353.94C22.4992 352.593 22.2059 351.627 21.6192 351.04C21.0326 350.44 20.3326 350.14 19.5192 350.14C18.7059 350.14 18.0326 350.48 17.4992 351.16C16.9659 351.84 16.6992 352.733 16.6992 353.84C16.6992 355.08 16.9726 356.04 17.5192 356.72C18.0659 357.387 18.7659 357.72 19.6192 357.72ZM22.4992 348.86H24.0792V362.94H22.4992V357.48C21.7659 358.6 20.7392 359.16 19.4192 359.16C18.1259 359.16 17.0726 358.667 16.2592 357.68C15.4592 356.68 15.0592 355.4 15.0592 353.84C15.0592 352.373 15.4459 351.153 16.2192 350.18C16.9926 349.193 18.0526 348.7 19.3992 348.7C20.7459 348.7 21.7792 349.253 22.4992 350.36V348.86ZM33.3069 348.86H34.8869V359H33.3069V357.24C32.7735 358.493 31.7135 359.12 30.1269 359.12C29.1269 359.12 28.3335 358.827 27.7469 358.24C27.1735 357.64 26.8869 356.84 26.8869 355.84V348.86H28.4669V355.44C28.4669 356.173 28.6535 356.733 29.0269 357.12C29.4002 357.507 29.9069 357.7 30.5469 357.7C31.3869 357.7 32.0535 357.407 32.5469 356.82C33.0535 356.233 33.3069 355.44 33.3069 354.44V348.86ZM37.8877 359V348.86H39.4677V359H37.8877ZM37.9277 346.42C37.741 346.22 37.6477 345.973 37.6477 345.68C37.6477 345.387 37.741 345.14 37.9277 344.94C38.1277 344.74 38.3743 344.64 38.6677 344.64C38.961 344.64 39.2077 344.74 39.4077 344.94C39.6077 345.14 39.7077 345.387 39.7077 345.68C39.7077 345.973 39.6077 346.22 39.4077 346.42C39.2077 346.607 38.961 346.7 38.6677 346.7C38.3743 346.7 38.1277 346.607 37.9277 346.42ZM46.3356 357.72C47.1623 357.72 47.8623 357.413 48.4356 356.8C49.0223 356.187 49.3156 355.207 49.3156 353.86C49.3156 352.58 49.0156 351.64 48.4156 351.04C47.8156 350.44 47.1556 350.14 46.4356 350.14C45.5956 350.14 44.8956 350.48 44.3356 351.16C43.789 351.827 43.5156 352.787 43.5156 354.04C43.5156 355.133 43.7823 356.02 44.3156 356.7C44.849 357.38 45.5223 357.72 46.3356 357.72ZM49.3156 344.86H50.8956V359H49.3156V357.5C48.5956 358.607 47.5556 359.16 46.1956 359.16C44.849 359.16 43.789 358.66 43.0156 357.66C42.2556 356.66 41.8756 355.447 41.8756 354.02C41.8756 352.433 42.2823 351.153 43.0956 350.18C43.909 349.193 44.9556 348.7 46.2356 348.7C47.5556 348.7 48.5823 349.267 49.3156 350.4V344.86ZM53.9033 359V348.86H55.4833V359H53.9033ZM53.9433 346.42C53.7566 346.22 53.6633 345.973 53.6633 345.68C53.6633 345.387 53.7566 345.14 53.9433 344.94C54.1433 344.74 54.3899 344.64 54.6833 344.64C54.9766 344.64 55.2233 344.74 55.4233 344.94C55.6233 345.14 55.7233 345.387 55.7233 345.68C55.7233 345.973 55.6233 346.22 55.4233 346.42C55.2233 346.607 54.9766 346.7 54.6833 346.7C54.3899 346.7 54.1433 346.607 53.9433 346.42ZM60.6713 350.14V356.08C60.6713 357.16 61.1779 357.7 62.1913 357.7C62.7113 357.7 63.1713 357.547 63.5713 357.24V358.74C63.1313 358.98 62.6379 359.1 62.0913 359.1C60.0913 359.1 59.0913 358.08 59.0913 356.04V350.14H57.4713V348.86H59.0913V346.34H60.6713V348.86H63.4713V350.14H60.6713ZM68.6741 358.74L64.5741 348.86H66.3541L67.6741 352.2L69.4541 356.8C69.5607 356.453 70.0941 354.92 71.0541 352.2L72.2341 348.86H73.9341L70.2741 358.74C69.7541 360.113 69.1341 361.08 68.4141 361.64C67.7074 362.2 66.8941 362.48 65.9741 362.48C65.6274 362.48 65.3474 362.447 65.1341 362.38V360.96C65.3341 361.013 65.5607 361.04 65.8141 361.04C67.1607 361.04 68.1141 360.273 68.6741 358.74ZM82.3202 352.66H84.4002C85.4135 352.66 86.2068 352.4 86.7802 351.88C87.3535 351.347 87.6402 350.673 87.6402 349.86C87.6402 348.953 87.3468 348.233 86.7602 347.7C86.1735 347.167 85.3402 346.9 84.2602 346.9H82.3202V352.66ZM80.7002 345.52H84.2402C85.8002 345.52 87.0268 345.927 87.9202 346.74C88.8268 347.54 89.2802 348.58 89.2802 349.86C89.2802 351.06 88.8335 352.06 87.9402 352.86C87.0468 353.647 85.8668 354.04 84.4002 354.04H82.3202V359H80.7002V345.52ZM95.6386 359.18C94.1853 359.18 93.0319 358.693 92.1786 357.72C91.3386 356.733 90.9186 355.493 90.9186 354C90.9186 352.493 91.3519 351.24 92.2186 350.24C93.0986 349.227 94.2386 348.72 95.6386 348.72C97.1719 348.72 98.3519 349.213 99.1786 350.2C100.019 351.187 100.439 352.44 100.439 353.96C100.439 355.467 100.012 356.713 99.1586 357.7C98.3053 358.687 97.1319 359.18 95.6386 359.18ZM95.6386 350.12C94.6786 350.12 93.9253 350.493 93.3786 351.24C92.8319 351.987 92.5586 352.9 92.5586 353.98C92.5586 355.033 92.8386 355.933 93.3986 356.68C93.9586 357.413 94.7053 357.78 95.6386 357.78C96.6519 357.78 97.4319 357.42 97.9786 356.7C98.5253 355.967 98.7986 355.06 98.7986 353.98C98.7986 352.86 98.5386 351.94 98.0186 351.22C97.4986 350.487 96.7053 350.12 95.6386 350.12ZM106.869 359.18C105.416 359.18 104.262 358.693 103.409 357.72C102.569 356.733 102.149 355.493 102.149 354C102.149 352.493 102.582 351.24 103.449 350.24C104.329 349.227 105.469 348.72 106.869 348.72C108.402 348.72 109.582 349.213 110.409 350.2C111.249 351.187 111.669 352.44 111.669 353.96C111.669 355.467 111.242 356.713 110.389 357.7C109.536 358.687 108.362 359.18 106.869 359.18ZM106.869 350.12C105.909 350.12 105.156 350.493 104.609 351.24C104.062 351.987 103.789 352.9 103.789 353.98C103.789 355.033 104.069 355.933 104.629 356.68C105.189 357.413 105.936 357.78 106.869 357.78C107.882 357.78 108.662 357.42 109.209 356.7C109.756 355.967 110.029 355.06 110.029 353.98C110.029 352.86 109.769 351.94 109.249 351.22C108.729 350.487 107.936 350.12 106.869 350.12ZM114.06 359V344.86H115.64V359H114.06ZM118.368 351.4C118.368 351.08 118.474 350.807 118.688 350.58C118.914 350.353 119.194 350.24 119.528 350.24C119.861 350.24 120.141 350.353 120.368 350.58C120.594 350.807 120.708 351.08 120.708 351.4C120.708 351.733 120.594 352.013 120.368 352.24C120.141 352.453 119.861 352.56 119.528 352.56C119.194 352.56 118.914 352.453 118.688 352.24C118.474 352.013 118.368 351.733 118.368 351.4ZM118.688 358.7C118.474 358.473 118.368 358.193 118.368 357.86C118.368 357.527 118.474 357.247 118.688 357.02C118.914 356.793 119.194 356.68 119.528 356.68C119.861 356.68 120.141 356.793 120.368 357.02C120.594 357.247 120.708 357.527 120.708 357.86C120.708 358.193 120.594 358.473 120.368 358.7C120.141 358.913 119.861 359.02 119.528 359.02C119.194 359.02 118.914 358.913 118.688 358.7Z" fill="#F5F5F5"/>
<path d="M1.16 380.06V378.52C1.93333 378.027 2.82667 377.78 3.84 377.78C5.13333 377.78 6.13333 378.113 6.84 378.78C7.56 379.433 7.92 380.247 7.92 381.22C7.92 381.927 7.74 382.56 7.38 383.12C7.03333 383.68 6.51333 384.1 5.82 384.38C6.58 384.553 7.18 384.907 7.62 385.44C8.07333 385.96 8.3 386.613 8.3 387.4C8.3 388.467 7.92667 389.353 7.18 390.06C6.43333 390.767 5.38 391.12 4.02 391.12C2.76667 391.12 1.68 390.9 0.76 390.46V388.88C1.74667 389.4 2.82 389.66 3.98 389.66C4.83333 389.66 5.49333 389.44 5.96 389C6.44 388.56 6.68 387.987 6.68 387.28C6.68 386.573 6.41333 386.033 5.88 385.66C5.36 385.273 4.60667 385.08 3.62 385.08H2.78V383.7H3.62C4.36667 383.7 4.99333 383.493 5.5 383.08C6.02 382.653 6.28 382.087 6.28 381.38C6.28 380.673 6.06 380.14 5.62 379.78C5.18 379.42 4.57333 379.24 3.8 379.24C2.88 379.24 2 379.513 1.16 380.06ZM12.2564 389.62H18.3364V391H10.0764V389.66C14.2097 386.54 16.2764 383.94 16.2764 381.86C16.2764 381.033 16.0364 380.4 15.5564 379.96C15.0764 379.507 14.4297 379.28 13.6164 379.28C12.5631 379.28 11.5231 379.673 10.4964 380.46V378.88C11.4431 378.147 12.5297 377.78 13.7564 377.78C14.9297 377.78 15.9164 378.12 16.7164 378.8C17.5164 379.48 17.9164 380.447 17.9164 381.7C17.9164 384.06 16.0297 386.7 12.2564 389.62ZM20.0192 390.82C19.7926 390.593 19.6792 390.313 19.6792 389.98C19.6792 389.647 19.7926 389.367 20.0192 389.14C20.2459 388.913 20.5259 388.8 20.8592 388.8C21.1926 388.8 21.4726 388.913 21.6992 389.14C21.9259 389.367 22.0392 389.647 22.0392 389.98C22.0392 390.313 21.9259 390.593 21.6992 390.82C21.4726 391.047 21.1926 391.16 20.8592 391.16C20.5259 391.16 20.2459 391.047 20.0192 390.82ZM25.8995 379.3V383.22C26.4995 383.087 27.0195 383.02 27.4595 383.02C28.7929 383.02 29.8462 383.373 30.6195 384.08C31.4062 384.787 31.7995 385.733 31.7995 386.92C31.7995 388.213 31.3729 389.247 30.5195 390.02C29.6795 390.78 28.5262 391.16 27.0595 391.16C25.7395 391.16 24.6195 390.933 23.6995 390.48V388.92C24.5529 389.427 25.5862 389.68 26.7995 389.68C29.0395 389.68 30.1595 388.74 30.1595 386.86C30.1595 386.1 29.8995 385.513 29.3795 385.1C28.8595 384.673 28.1862 384.46 27.3595 384.46C26.3862 384.46 25.3795 384.693 24.3395 385.16V377.92H30.8995V379.3H25.8995ZM36.8153 391.02L43.9553 377.7H45.4953L38.3153 391.02H36.8153ZM42.3353 387.98C42.3353 387.1 42.642 386.353 43.2553 385.74C43.8686 385.113 44.6153 384.8 45.4953 384.8C46.362 384.8 47.102 385.113 47.7153 385.74C48.342 386.367 48.6553 387.113 48.6553 387.98C48.6553 388.847 48.342 389.593 47.7153 390.22C47.102 390.833 46.362 391.14 45.4953 391.14C44.6153 391.14 43.8686 390.833 43.2553 390.22C42.642 389.593 42.3353 388.847 42.3353 387.98ZM33.6753 380.7C33.6753 379.833 33.982 379.093 34.5953 378.48C35.222 377.853 35.9686 377.54 36.8353 377.54C37.702 377.54 38.4486 377.853 39.0753 378.48C39.702 379.093 40.0153 379.833 40.0153 380.7C40.0153 381.58 39.702 382.333 39.0753 382.96C38.4486 383.573 37.702 383.88 36.8353 383.88C35.9686 383.88 35.222 383.573 34.5953 382.96C33.982 382.333 33.6753 381.58 33.6753 380.7ZM35.5753 379.44C35.2286 379.787 35.0553 380.207 35.0553 380.7C35.0553 381.193 35.2286 381.62 35.5753 381.98C35.922 382.327 36.342 382.5 36.8353 382.5C37.3286 382.5 37.7486 382.327 38.0953 381.98C38.4553 381.62 38.6353 381.193 38.6353 380.7C38.6353 380.207 38.4553 379.787 38.0953 379.44C37.7486 379.093 37.3286 378.92 36.8353 378.92C36.342 378.92 35.922 379.093 35.5753 379.44ZM44.2153 386.72C43.8686 387.067 43.6953 387.487 43.6953 387.98C43.6953 388.473 43.8686 388.893 44.2153 389.24C44.5753 389.587 45.002 389.76 45.4953 389.76C45.9886 389.76 46.4086 389.587 46.7553 389.24C47.1153 388.893 47.2953 388.473 47.2953 387.98C47.2953 387.487 47.122 387.067 46.7753 386.72C46.4286 386.36 46.002 386.18 45.4953 386.18C45.002 386.18 44.5753 386.36 44.2153 386.72Z" fill="#E191EE"/>
<path d="M8.94 497.94H3.16V502.72H8.24V504.14H3.16V510H1.54V496.52H8.94V497.94ZM16.7052 505.32H14.9452C14.0918 505.32 13.4518 505.487 13.0252 505.82C12.5985 506.153 12.3852 506.573 12.3852 507.08C12.3852 507.587 12.5518 508 12.8852 508.32C13.2185 508.627 13.7052 508.78 14.3452 508.78C15.0652 508.78 15.6385 508.58 16.0652 508.18C16.4918 507.767 16.7052 507.247 16.7052 506.62V505.32ZM11.4652 501.98V500.4C12.2252 499.933 13.2252 499.7 14.4652 499.7C17.0118 499.7 18.2852 500.993 18.2852 503.58V510H16.7252V508.8C16.2052 509.667 15.2585 510.1 13.8852 510.1C12.9385 510.1 12.1718 509.82 11.5852 509.26C11.0118 508.7 10.7252 507.993 10.7252 507.14C10.7252 506.167 11.0918 505.413 11.8252 504.88C12.5718 504.333 13.5852 504.06 14.8652 504.06H16.7052V503.54C16.7052 502.74 16.5252 502.14 16.1652 501.74C15.8052 501.327 15.1985 501.12 14.3452 501.12C13.2652 501.12 12.3052 501.407 11.4652 501.98ZM21.1689 510V499.86H22.7489V510H21.1689ZM21.2089 497.42C21.0222 497.22 20.9289 496.973 20.9289 496.68C20.9289 496.387 21.0222 496.14 21.2089 495.94C21.4089 495.74 21.6556 495.64 21.9489 495.64C22.2422 495.64 22.4889 495.74 22.6889 495.94C22.8889 496.14 22.9889 496.387 22.9889 496.68C22.9889 496.973 22.8889 497.22 22.6889 497.42C22.4889 497.607 22.2422 497.7 21.9489 497.7C21.6556 497.7 21.4089 497.607 21.2089 497.42ZM27.3169 499.86V501.64C27.8502 500.387 28.7702 499.76 30.0769 499.76C30.3169 499.76 30.5035 499.773 30.6369 499.8V501.36C30.3569 501.267 30.0702 501.22 29.7769 501.22C29.0702 501.22 28.4835 501.547 28.0169 502.2C27.5502 502.853 27.3169 503.607 27.3169 504.46V510H25.7369L25.7569 499.86H27.3169ZM38.8631 508.54H44.6031V510H37.2431V496.52H38.8631V508.54ZM52.1544 505.32H50.3944C49.541 505.32 48.901 505.487 48.4744 505.82C48.0477 506.153 47.8344 506.573 47.8344 507.08C47.8344 507.587 48.001 508 48.3344 508.32C48.6677 508.627 49.1544 508.78 49.7944 508.78C50.5144 508.78 51.0877 508.58 51.5144 508.18C51.941 507.767 52.1544 507.247 52.1544 506.62V505.32ZM46.9144 501.98V500.4C47.6744 499.933 48.6744 499.7 49.9144 499.7C52.461 499.7 53.7344 500.993 53.7344 503.58V510H52.1744V508.8C51.6544 509.667 50.7077 510.1 49.3344 510.1C48.3877 510.1 47.621 509.82 47.0344 509.26C46.461 508.7 46.1744 507.993 46.1744 507.14C46.1744 506.167 46.541 505.413 47.2744 504.88C48.021 504.333 49.0344 504.06 50.3144 504.06H52.1544V503.54C52.1544 502.74 51.9744 502.14 51.6144 501.74C51.2544 501.327 50.6477 501.12 49.7944 501.12C48.7144 501.12 47.7544 501.407 46.9144 501.98ZM62.8381 499.86H64.4181V510H62.8381V508.24C62.3048 509.493 61.2448 510.12 59.6581 510.12C58.6581 510.12 57.8648 509.827 57.2781 509.24C56.7048 508.64 56.4181 507.84 56.4181 506.84V499.86H57.9981V506.44C57.9981 507.173 58.1848 507.733 58.5581 508.12C58.9315 508.507 59.4381 508.7 60.0781 508.7C60.9181 508.7 61.5848 508.407 62.0781 507.82C62.5848 507.233 62.8381 506.44 62.8381 505.44V499.86ZM68.8989 499.86V501.62C69.4989 500.353 70.5656 499.72 72.0989 499.72C73.0856 499.72 73.8722 500.02 74.4589 500.62C75.0456 501.22 75.3389 502.02 75.3389 503.02V510H73.7589V503.44C73.7589 502.693 73.5656 502.127 73.1789 501.74C72.8056 501.34 72.3122 501.14 71.6989 501.14C70.9389 501.14 70.2789 501.433 69.7189 502.02C69.1722 502.607 68.8989 503.42 68.8989 504.46V510H67.3389V499.86H68.8989ZM79.1797 504.98C79.193 506.073 79.5264 506.987 80.1797 507.72C80.833 508.44 81.7597 508.8 82.9597 508.8C83.733 508.8 84.453 508.58 85.1197 508.14V509.64C84.4797 510.027 83.693 510.22 82.7597 510.22C81.1597 510.22 79.8864 509.713 78.9397 508.7C78.0064 507.673 77.5397 506.427 77.5397 504.96C77.5397 503.52 78.0064 502.28 78.9397 501.24C79.8864 500.2 81.173 499.68 82.7997 499.68C83.6664 499.68 84.4397 499.867 85.1197 500.24V501.74C84.5064 501.327 83.7864 501.12 82.9597 501.12C81.813 501.12 80.893 501.493 80.1997 502.24C79.5197 502.973 79.1797 503.887 79.1797 504.98ZM89.1138 495.86V501.62C89.7138 500.353 90.7804 499.72 92.3138 499.72C93.2871 499.72 94.0671 500.02 94.6538 500.62C95.2538 501.22 95.5538 502.033 95.5538 503.06V510H93.9738V503.44C93.9738 502.707 93.7804 502.14 93.3938 501.74C93.0204 501.34 92.5271 501.14 91.9138 501.14C91.1671 501.14 90.5138 501.427 89.9538 502C89.3938 502.573 89.1138 503.393 89.1138 504.46V510H87.5538V495.86H89.1138ZM110.377 497.02V498.72C109.564 498.187 108.591 497.92 107.457 497.92C106.644 497.92 105.997 498.113 105.517 498.5C105.037 498.873 104.797 499.367 104.797 499.98C104.797 500.3 104.857 500.587 104.977 500.84C105.111 501.093 105.337 501.333 105.657 501.56C105.977 501.773 106.251 501.94 106.477 502.06C106.704 502.167 107.057 502.327 107.537 502.54C107.991 502.74 108.337 502.9 108.577 503.02C108.817 503.127 109.124 503.307 109.497 503.56C109.884 503.8 110.171 504.04 110.357 504.28C110.557 504.507 110.731 504.813 110.877 505.2C111.037 505.573 111.117 505.98 111.117 506.42C111.117 507.607 110.711 508.527 109.897 509.18C109.084 509.82 108.037 510.14 106.757 510.14C105.344 510.14 104.144 509.853 103.157 509.28V507.54C104.131 508.273 105.317 508.64 106.717 508.64C107.557 508.64 108.217 508.453 108.697 508.08C109.177 507.707 109.417 507.167 109.417 506.46C109.417 506.167 109.357 505.907 109.237 505.68C109.131 505.44 108.944 505.227 108.677 505.04C108.424 504.84 108.177 504.68 107.937 504.56C107.711 504.427 107.397 504.267 106.997 504.08C106.917 504.04 106.797 503.987 106.637 503.92C106.064 503.667 105.624 503.46 105.317 503.3C105.024 503.14 104.671 502.907 104.257 502.6C103.857 502.28 103.564 501.913 103.377 501.5C103.191 501.087 103.097 500.607 103.097 500.06C103.097 498.913 103.504 498.02 104.317 497.38C105.144 496.727 106.177 496.4 107.417 496.4C108.577 496.4 109.564 496.607 110.377 497.02ZM119.186 505.32H117.426C116.572 505.32 115.932 505.487 115.506 505.82C115.079 506.153 114.866 506.573 114.866 507.08C114.866 507.587 115.032 508 115.366 508.32C115.699 508.627 116.186 508.78 116.826 508.78C117.546 508.78 118.119 508.58 118.546 508.18C118.972 507.767 119.186 507.247 119.186 506.62V505.32ZM113.946 501.98V500.4C114.706 499.933 115.706 499.7 116.946 499.7C119.492 499.7 120.766 500.993 120.766 503.58V510H119.206V508.8C118.686 509.667 117.739 510.1 116.366 510.1C115.419 510.1 114.652 509.82 114.066 509.26C113.492 508.7 113.206 507.993 113.206 507.14C113.206 506.167 113.572 505.413 114.306 504.88C115.052 504.333 116.066 504.06 117.346 504.06H119.186V503.54C119.186 502.74 119.006 502.14 118.646 501.74C118.286 501.327 117.679 501.12 116.826 501.12C115.746 501.12 114.786 501.407 113.946 501.98ZM123.649 510V495.86H125.229V510H123.649ZM134.697 504.28V503.88C134.697 503.04 134.471 502.373 134.017 501.88C133.564 501.373 132.937 501.12 132.137 501.12C131.377 501.12 130.731 501.393 130.197 501.94C129.664 502.487 129.351 503.267 129.257 504.28H134.697ZM135.637 508V509.48C134.851 509.893 133.891 510.1 132.757 510.1C131.224 510.1 129.984 509.633 129.037 508.7C128.104 507.753 127.637 506.507 127.637 504.96C127.637 503.347 128.057 502.073 128.897 501.14C129.737 500.207 130.817 499.74 132.137 499.74C133.404 499.74 134.411 500.147 135.157 500.96C135.904 501.773 136.277 502.927 136.277 504.42C136.277 504.847 136.244 505.24 136.177 505.6H129.257C129.377 506.6 129.757 507.367 130.397 507.9C131.037 508.433 131.877 508.7 132.917 508.7C134.051 508.7 134.957 508.467 135.637 508ZM138.407 502.4C138.407 502.08 138.513 501.807 138.727 501.58C138.953 501.353 139.233 501.24 139.567 501.24C139.9 501.24 140.18 501.353 140.407 501.58C140.633 501.807 140.747 502.08 140.747 502.4C140.747 502.733 140.633 503.013 140.407 503.24C140.18 503.453 139.9 503.56 139.567 503.56C139.233 503.56 138.953 503.453 138.727 503.24C138.513 503.013 138.407 502.733 138.407 502.4ZM138.727 509.7C138.513 509.473 138.407 509.193 138.407 508.86C138.407 508.527 138.513 508.247 138.727 508.02C138.953 507.793 139.233 507.68 139.567 507.68C139.9 507.68 140.18 507.793 140.407 508.02C140.633 508.247 140.747 508.527 140.747 508.86C140.747 509.193 140.633 509.473 140.407 509.7C140.18 509.913 139.9 510.02 139.567 510.02C139.233 510.02 138.953 509.913 138.727 509.7Z" fill="#F5F5F5"/>
<path d="M3.38 530.3V534.22C3.98 534.087 4.5 534.02 4.94 534.02C6.27333 534.02 7.32667 534.373 8.1 535.08C8.88667 535.787 9.28 536.733 9.28 537.92C9.28 539.213 8.85333 540.247 8 541.02C7.16 541.78 6.00667 542.16 4.54 542.16C3.22 542.16 2.1 541.933 1.18 541.48V539.92C2.03333 540.427 3.06667 540.68 4.28 540.68C6.52 540.68 7.64 539.74 7.64 537.86C7.64 537.1 7.38 536.513 6.86 536.1C6.34 535.673 5.66667 535.46 4.84 535.46C3.86667 535.46 2.86 535.693 1.82 536.16V528.92H8.38V530.3H3.38ZM13.5558 530.3V534.22C14.1558 534.087 14.6758 534.02 15.1158 534.02C16.4491 534.02 17.5024 534.373 18.2758 535.08C19.0624 535.787 19.4558 536.733 19.4558 537.92C19.4558 539.213 19.0291 540.247 18.1758 541.02C17.3358 541.78 16.1824 542.16 14.7158 542.16C13.3958 542.16 12.2758 541.933 11.3558 541.48V539.92C12.2091 540.427 13.2424 540.68 14.4558 540.68C16.6958 540.68 17.8158 539.74 17.8158 537.86C17.8158 537.1 17.5558 536.513 17.0358 536.1C16.5158 535.673 15.8424 535.46 15.0158 535.46C14.0424 535.46 13.0358 535.693 11.9958 536.16V528.92H18.5558V530.3H13.5558ZM24.4716 542.02L31.6116 528.7H33.1516L25.9716 542.02H24.4716ZM29.9916 538.98C29.9916 538.1 30.2982 537.353 30.9116 536.74C31.5249 536.113 32.2716 535.8 33.1516 535.8C34.0182 535.8 34.7582 536.113 35.3716 536.74C35.9982 537.367 36.3116 538.113 36.3116 538.98C36.3116 539.847 35.9982 540.593 35.3716 541.22C34.7582 541.833 34.0182 542.14 33.1516 542.14C32.2716 542.14 31.5249 541.833 30.9116 541.22C30.2982 540.593 29.9916 539.847 29.9916 538.98ZM21.3316 531.7C21.3316 530.833 21.6382 530.093 22.2516 529.48C22.8782 528.853 23.6249 528.54 24.4916 528.54C25.3582 528.54 26.1049 528.853 26.7316 529.48C27.3582 530.093 27.6716 530.833 27.6716 531.7C27.6716 532.58 27.3582 533.333 26.7316 533.96C26.1049 534.573 25.3582 534.88 24.4916 534.88C23.6249 534.88 22.8782 534.573 22.2516 533.96C21.6382 533.333 21.3316 532.58 21.3316 531.7ZM23.2316 530.44C22.8849 530.787 22.7116 531.207 22.7116 531.7C22.7116 532.193 22.8849 532.62 23.2316 532.98C23.5782 533.327 23.9982 533.5 24.4916 533.5C24.9849 533.5 25.4049 533.327 25.7516 532.98C26.1116 532.62 26.2916 532.193 26.2916 531.7C26.2916 531.207 26.1116 530.787 25.7516 530.44C25.4049 530.093 24.9849 529.92 24.4916 529.92C23.9982 529.92 23.5782 530.093 23.2316 530.44ZM31.8716 537.72C31.5249 538.067 31.3516 538.487 31.3516 538.98C31.3516 539.473 31.5249 539.893 31.8716 540.24C32.2316 540.587 32.6582 540.76 33.1516 540.76C33.6449 540.76 34.0649 540.587 34.4116 540.24C34.7716 539.893 34.9516 539.473 34.9516 538.98C34.9516 538.487 34.7782 538.067 34.4316 537.72C34.0849 537.36 33.6582 537.18 33.1516 537.18C32.6582 537.18 32.2316 537.36 31.8716 537.72Z" fill="#E191EE"/>
<path d="M301.176 195.653L313.556 212.564L350.695 263.568C363.475 253.734 379.135 248.374 395.262 248.317V164.308C361.34 164.333 328.335 175.328 301.176 195.653Z" fill="#94529F"/>
<path d="M350.695 263.568L313.556 212.49C307.742 216.851 302.286 221.67 297.239 226.899L341.806 271.466C344.542 268.588 347.515 265.946 350.695 263.568Z" fill="#C38DCE"/>
<path d="M321.553 322.421C321.532 303.48 328.792 285.255 341.831 271.516L297.264 226.949L282.408 212.093L267.875 197.584C246.612 219.34 231.259 246.166 223.27 275.518C215.281 304.871 214.921 335.778 222.224 365.308C229.527 394.839 244.252 422.015 265.002 444.26C285.752 466.505 311.839 483.082 340.791 492.42L347.055 472.959L353.517 453.151L372.978 392.986C358.042 388.18 345.015 378.759 335.774 366.078C326.533 353.398 321.554 338.112 321.553 322.421Z" fill="#7C287D"/>
<path d="M395.262 126.327V248.317H395.782C406.492 248.318 417.074 250.641 426.8 255.124C436.526 259.608 445.166 266.145 452.124 274.287C459.081 282.429 464.192 291.982 467.105 302.288C470.017 312.594 470.661 323.409 468.994 333.988C467.326 344.568 463.386 354.66 457.445 363.571C451.504 372.481 443.702 379.999 434.577 385.606C425.452 391.212 415.221 394.776 404.587 396.05C393.953 397.324 383.17 396.278 372.978 392.986L353.493 452.978L347.03 472.786L340.791 492.42L333.908 513.614C353.68 520.229 374.413 523.517 395.262 523.344C421.517 523.638 447.569 518.719 471.911 508.875C496.252 499.031 518.399 484.455 537.068 465.993C555.738 447.53 570.56 425.548 580.676 401.318C590.791 377.088 596 351.092 596 324.836C596 298.579 590.791 272.583 580.676 248.353C570.56 224.123 555.738 202.141 537.068 183.678C518.399 165.216 496.252 150.641 471.911 140.796C447.569 130.952 421.517 126.034 395.262 126.327Z" fill="#531C56"/>
<path d="M317 236L246.5 164.5H0.5" stroke="#F5F5F5"/>
<line x1="284" y1="402.5" y2="402.5" stroke="#F5F5F5"/>
<path d="M408 484.5L327 553H0.5" stroke="#F5F5F5"/>
<path d="M4 64H220.5L363.5 211.5" stroke="#F5F5F5"/>
</svg>
