<svg width="93" height="93" viewBox="0 0 93 93" fill="none" xmlns="http://www.w3.org/2000/svg">
<path d="M39.78 13.04H13.04V39.78H39.78V13.04ZM35.43 35.43H17.39V17.39H35.43V35.43Z" fill="url(#paint0_linear_13_74)"/>
<path d="M31.62 21.19H21.19V31.62H31.62V21.19Z" fill="url(#paint1_linear_13_74)"/>
<path d="M53.15 13.04V39.78H79.89V13.04H53.15ZM75.54 35.43H57.5V17.39H75.54V35.43Z" fill="url(#paint2_linear_13_74)"/>
<path d="M71.73 21.19H61.3V31.62H71.73V21.19Z" fill="url(#paint3_linear_13_74)"/>
<path d="M13.04 79.89H39.78V53.15H13.04V79.89ZM17.39 57.5H35.43V75.54H17.39V57.5Z" fill="url(#paint4_linear_13_74)"/>
<path d="M31.62 61.3H21.19V71.73H31.62V61.3Z" fill="url(#paint5_linear_13_74)"/>
<path d="M19.24 44.29H13.04V48.64H19.24V44.29Z" fill="url(#paint6_linear_13_74)"/>
<path d="M22.93 44.29V48.64H44.29H46.3H48.64V13.04H44.29V44.29H22.93Z" fill="url(#paint7_linear_13_74)"/>
<path d="M61.41 53.15H44.29V57.5H61.41V53.15Z" fill="url(#paint8_linear_13_74)"/>
<path d="M75.54 75.54H61.41V79.89H75.54H79.89V75.54V63.69H75.54V75.54Z" fill="url(#paint9_linear_13_74)"/>
<path d="M65.76 68.04H71.41V63.69H65.76H62.82H61.41V70.87H65.76V68.04Z" fill="url(#paint10_linear_13_74)"/>
<path d="M67.06 54.29H71.41V44.29H68.37H67.06H53.15V48.64H67.06V54.29Z" fill="url(#paint11_linear_13_74)"/>
<path d="M79.89 53.15H75.32V57.5H79.89V53.15Z" fill="url(#paint12_linear_13_74)"/>
<path d="M50.92 67.39H44.29V69.35V71.74V79.89H48.64V71.74H50.92H55.27V67.39V63.69H50.92V67.39Z" fill="url(#paint13_linear_13_74)"/>
<path d="M75 0V4.35H88.58V17.93H92.93V0H75Z" fill="url(#paint14_linear_13_74)"/>
<path d="M0 17.93H4.35V4.35H17.93V0H0V17.93Z" fill="url(#paint15_linear_13_74)"/>
<path d="M17.93 92.93V88.58H4.35V75H0V92.93H17.93Z" fill="url(#paint16_linear_13_74)"/>
<path d="M92.93 75H88.58V88.58H75V92.93H92.93V75Z" fill="url(#paint17_linear_13_74)"/>
<defs>
<linearGradient id="paint0_linear_13_74" x1="26.41" y1="13.04" x2="26.41" y2="39.78" gradientUnits="userSpaceOnUse">
<stop stop-color="#E191EE"/>
<stop offset="1" stop-color="#94529F"/>
</linearGradient>
<linearGradient id="paint1_linear_13_74" x1="26.405" y1="21.19" x2="26.405" y2="31.62" gradientUnits="userSpaceOnUse">
<stop stop-color="#E191EE"/>
<stop offset="1" stop-color="#94529F"/>
</linearGradient>
<linearGradient id="paint2_linear_13_74" x1="66.52" y1="13.04" x2="66.52" y2="39.78" gradientUnits="userSpaceOnUse">
<stop stop-color="#E191EE"/>
<stop offset="1" stop-color="#94529F"/>
</linearGradient>
<linearGradient id="paint3_linear_13_74" x1="66.515" y1="21.19" x2="66.515" y2="31.62" gradientUnits="userSpaceOnUse">
<stop stop-color="#E191EE"/>
<stop offset="1" stop-color="#94529F"/>
</linearGradient>
<linearGradient id="paint4_linear_13_74" x1="26.41" y1="53.15" x2="26.41" y2="79.89" gradientUnits="userSpaceOnUse">
<stop stop-color="#E191EE"/>
<stop offset="1" stop-color="#94529F"/>
</linearGradient>
<linearGradient id="paint5_linear_13_74" x1="26.405" y1="61.3" x2="26.405" y2="71.73" gradientUnits="userSpaceOnUse">
<stop stop-color="#E191EE"/>
<stop offset="1" stop-color="#94529F"/>
</linearGradient>
<linearGradient id="paint6_linear_13_74" x1="16.14" y1="44.29" x2="16.14" y2="48.64" gradientUnits="userSpaceOnUse">
<stop stop-color="#E191EE"/>
<stop offset="1" stop-color="#94529F"/>
</linearGradient>
<linearGradient id="paint7_linear_13_74" x1="35.785" y1="13.04" x2="35.785" y2="48.64" gradientUnits="userSpaceOnUse">
<stop stop-color="#E191EE"/>
<stop offset="1" stop-color="#94529F"/>
</linearGradient>
<linearGradient id="paint8_linear_13_74" x1="52.85" y1="53.15" x2="52.85" y2="57.5" gradientUnits="userSpaceOnUse">
<stop stop-color="#E191EE"/>
<stop offset="1" stop-color="#94529F"/>
</linearGradient>
<linearGradient id="paint9_linear_13_74" x1="70.65" y1="63.69" x2="70.65" y2="79.89" gradientUnits="userSpaceOnUse">
<stop stop-color="#E191EE"/>
<stop offset="1" stop-color="#94529F"/>
</linearGradient>
<linearGradient id="paint10_linear_13_74" x1="66.41" y1="63.69" x2="66.41" y2="70.87" gradientUnits="userSpaceOnUse">
<stop stop-color="#E191EE"/>
<stop offset="1" stop-color="#94529F"/>
</linearGradient>
<linearGradient id="paint11_linear_13_74" x1="62.28" y1="44.29" x2="62.28" y2="54.29" gradientUnits="userSpaceOnUse">
<stop stop-color="#E191EE"/>
<stop offset="1" stop-color="#94529F"/>
</linearGradient>
<linearGradient id="paint12_linear_13_74" x1="77.605" y1="53.15" x2="77.605" y2="57.5" gradientUnits="userSpaceOnUse">
<stop stop-color="#E191EE"/>
<stop offset="1" stop-color="#94529F"/>
</linearGradient>
<linearGradient id="paint13_linear_13_74" x1="49.78" y1="63.69" x2="49.78" y2="79.89" gradientUnits="userSpaceOnUse">
<stop stop-color="#E191EE"/>
<stop offset="1" stop-color="#94529F"/>
</linearGradient>
<linearGradient id="paint14_linear_13_74" x1="83.965" y1="0" x2="83.965" y2="17.93" gradientUnits="userSpaceOnUse">
<stop stop-color="#E191EE"/>
<stop offset="1" stop-color="#94529F"/>
</linearGradient>
<linearGradient id="paint15_linear_13_74" x1="8.965" y1="0" x2="8.965" y2="17.93" gradientUnits="userSpaceOnUse">
<stop stop-color="#E191EE"/>
<stop offset="1" stop-color="#94529F"/>
</linearGradient>
<linearGradient id="paint16_linear_13_74" x1="8.965" y1="75" x2="8.965" y2="92.93" gradientUnits="userSpaceOnUse">
<stop stop-color="#E191EE"/>
<stop offset="1" stop-color="#94529F"/>
</linearGradient>
<linearGradient id="paint17_linear_13_74" x1="83.965" y1="75" x2="83.965" y2="92.93" gradientUnits="userSpaceOnUse">
<stop stop-color="#E191EE"/>
<stop offset="1" stop-color="#94529F"/>
</linearGradient>
</defs>
</svg>
