<svg width="31" height="25" viewBox="0 0 31 25" fill="none" xmlns="http://www.w3.org/2000/svg">
<path d="M30.6235 0.537924C30.5149 0.220663 30.3863 0.134917 30.1833 0.0577455C29.7403 -0.110889 28.9915 0.143492 28.9915 0.143492C28.9915 0.143492 2.43588 9.68704 0.921026 10.7446C0.595191 10.9732 0.483721 11.1047 0.429415 11.2591C0.16646 12.0108 0.983907 12.3423 0.983907 12.3423L7.82931 14.5717C7.82931 14.5717 8.08369 14.6089 8.17515 14.5517C9.73287 13.5685 23.841 4.65946 24.6527 4.35934C24.7813 4.32219 24.8756 4.36506 24.8499 4.45367C24.5241 5.59695 12.271 16.4896 12.271 16.4896C12.271 16.4896 12.2252 16.5467 12.1938 16.6153L12.1766 16.6068L11.5393 23.395C11.5393 23.395 11.2706 25.4758 13.3514 23.395C14.8176 21.9287 16.2382 20.6997 16.9498 20.1023C19.3021 21.7258 21.8374 23.5236 22.9292 24.464C23.478 24.9356 23.9382 25.0127 24.3154 24.9984C25.353 24.9584 25.6416 23.8209 25.6416 23.8209C25.6416 23.8209 30.4806 4.34505 30.6435 1.73551C30.6607 1.48113 30.6807 1.31821 30.6835 1.14101C30.6864 0.898058 30.6635 0.65511 30.6235 0.537924Z" fill="#94529F"/>
</svg>
