<svg width="35" height="30" viewBox="0 0 35 30" fill="none" xmlns="http://www.w3.org/2000/svg">
<path d="M31.2689 0H3.1574C2.341 0 1.68199 0.659016 1.68199 1.47541C1.68199 2.2918 2.341 2.95082 3.1574 2.95082H31.259C32.0754 2.95082 32.7344 2.2918 32.7344 1.47541C32.7443 0.659016 32.0754 0 31.2689 0Z" fill="url(#paint0_linear_122_36)"/>
<path d="M32.459 5.40985H1.96721C0.885246 5.40985 0 6.2951 0 7.37706V28.0328C0 29.1148 0.885246 30 1.96721 30H32.459C33.541 30 34.4262 29.1148 34.4262 28.0328V7.37706C34.4262 6.2951 33.541 5.40985 32.459 5.40985ZM7.86885 9.34428C9.50164 9.34428 10.8197 10.6623 10.8197 12.2951C10.8197 13.9279 9.50164 15.2459 7.86885 15.2459C6.23607 15.2459 4.91803 13.9279 4.91803 12.2951C4.91803 10.6623 6.23607 9.34428 7.86885 9.34428ZM10.3279 25.8197H6.39344C5.71475 25.8197 5.16393 25.2689 5.16393 24.5902C5.16393 23.9115 5.71475 23.3607 6.39344 23.3607H10.3279C11.0066 23.3607 11.5574 23.9115 11.5574 24.5902C11.5574 25.2689 11.0066 25.8197 10.3279 25.8197ZM19.1803 25.8197H15.2459C14.5672 25.8197 14.0164 25.2689 14.0164 24.5902C14.0164 23.9115 14.5672 23.3607 15.2459 23.3607H19.1803C19.859 23.3607 20.4098 23.9115 20.4098 24.5902C20.4098 25.2689 19.859 25.8197 19.1803 25.8197ZM28.0328 25.8197H24.0984C23.4197 25.8197 22.8689 25.2689 22.8689 24.5902C22.8689 23.9115 23.4197 23.3607 24.0984 23.3607H28.0328C28.7115 23.3607 29.2623 23.9115 29.2623 24.5902C29.2623 25.2689 28.7115 25.8197 28.0328 25.8197ZM28.0328 14.0164H15.2459C14.5672 14.0164 14.0164 13.4656 14.0164 12.7869C14.0164 12.1082 14.5672 11.5574 15.2459 11.5574H28.0328C28.7115 11.5574 29.2623 12.1082 29.2623 12.7869C29.2623 13.4656 28.7115 14.0164 28.0328 14.0164Z" fill="url(#paint1_linear_122_36)"/>
<defs>
<linearGradient id="paint0_linear_122_36" x1="17.2083" y1="0" x2="17.2083" y2="2.95082" gradientUnits="userSpaceOnUse">
<stop stop-color="#E191EE"/>
<stop offset="1" stop-color="#94529F"/>
</linearGradient>
<linearGradient id="paint1_linear_122_36" x1="17.2131" y1="5.40985" x2="17.2131" y2="30" gradientUnits="userSpaceOnUse">
<stop stop-color="#E191EE"/>
<stop offset="1" stop-color="#94529F"/>
</linearGradient>
</defs>
</svg>
